Data munging: the tidyverse way (WIP)
…
Otra vez Asia es la ganadora. En promedio, en Asía se mejoró la esperanza de vida en 24 años entre 1952 y 2007. Genial, PERO no hemos ponderado por población. ¿Lo hacemos? Precisamente éste es uno de los ejercicios que os dejo para vosotros.

Lo de antes es el proceso que seguí para (intentar) resolver la pregunta. Lo hice muy rápido, así que la solución de Jenny es far-far better que la mía. Está es la solución de Jenny:

#- en realidad este chunk no hace lo que dice el parrafo de arriba que hace !! ¿Qué es lo que realmente hace?
aa <- df %>% 
  group_by(continent, year) %>% 
  select(continent, year, lifeExp) %>% 
  summarise(mean_life = mean(lifeExp)) %>% 
  arrange(year) %>% 
  mutate(incre_mean_life_0 = mean_life - first(mean_life)) %>% 
  mutate(incre_mean_life_t = mean_life - lag(mean_life)) %>% 
  arrange(continent)
aa
#> # A tibble: 60 x 5
#> # Groups:   continent [5]
#>    continent  year mean_life incre_mean_life_0 incre_mean_life_t
#>    <fct>     <int>     <dbl>             <dbl>             <dbl>
#>  1 Africa     1952      39.1              0              NA     
#>  2 Africa     1957      41.3              2.13            2.13  
#>  3 Africa     1962      43.3              4.18            2.05  
#>  4 Africa     1967      45.3              6.20            2.02  
#>  5 Africa     1972      47.5              8.32            2.12  
#>  6 Africa     1977      49.6             10.4             2.13  
#>  7 Africa     1982      51.6             12.5             2.01  
#>  8 Africa     1987      53.3             14.2             1.75  
#>  9 Africa     1992      53.6             14.5             0.285 
#> 10 Africa     1997      53.6             14.5            -0.0313
#> # ... with 50 more rows
…
